{
	"intentData": [
		{
			"id": 0,
			"intent": "reset",
			"sub_intent": "ad",
			"point": 10
		},
		{
			"id": 1,
			"intent": "change",
			"sub_intent": "ad",
			"point": 5
		},
		{
			"id": 2,
			"intent": "unlock",
			"sub_intent": "ad",
			"point": 6
		},
		{
			"id": 3,
			"intent": "Reset",
			"sub_intent": "sap",
			"point": 7
		},
		{
			"id": 4,
			"intent": "Change",
			"sub_intent": "sap",
			"point": 8
		},
		{
			"id": 5,
			"intent": "unlock",
			"sub_intent": "sap",
			"point": 9
		}
	],
	"entity": [
		{
			"id": 0,
			"value": "cancel",
			"synonyms": ["ยกเลิก", "ไม่ต้องการ"]
		},
		{
			"id": 1,
			"value": "no",
			"synonyms": ["ไม่ดี", "ไม่ดีมาก"]
		},
		{
			"id": 2,
			"value": "yes",
			"synonyms": ["ดี", "ดีมาก"]
		}
	]
}
